…
## Determining the Average Number of Steps Taken per Day

We calculate the total number of steps taken per day by grouping the dataset by date and adding the steps taken for each day using the summarize function in the dplyr package


```r
library(dplyr)
total <- summarize(group_by(data, date), sum = sum(steps, na.rm = TRUE))
print(total)
```

```
## # A tibble: 61 x 2
##          date   sum
##        <dttm> <int>
##  1 2012-10-01     0
##  2 2012-10-02   126
##  3 2012-10-03 11352
##  4 2012-10-04 12116
##  5 2012-10-05 13294
##  6 2012-10-06 15420
##  7 2012-10-07 11015
##  8 2012-10-08     0
##  9 2012-10-09 12811
## 10 2012-10-10  9900
## # ... with 51 more rows
```
…
